{
  "__type__": "cc.AnimationClip",
  "_name": "indigo",
  "_objFlags": 0,
  "_rawFiles": null,
  "_duration": 1.25,
  "sample": 4,
  "speed": 1,
  "wrapMode": "2",
  "curveData": {
    "comps": {
      "cc.Sprite": {
        "spriteFrame": [
          {
            "frame": 0,
            "value": {
              "__uuid__": "a81e9372-c679-4eb0-9333-804c075a161b"
            }
          },
          {
            "frame": 0.25,
            "value": {
              "__uuid__": "222473d1-0fe9-402f-86da-168c6052ee54"
            }
          },
          {
            "frame": 0.5,
            "value": {
              "__uuid__": "394efb19-9827-491b-b36e-308693418f8d"
            }
          },
          {
            "frame": 0.75,
            "value": {
              "__uuid__": "d478c878-5129-4bd2-8bde-c1c6f8910663"
            }
          },
          {
            "frame": 1,
            "value": {
              "__uuid__": "98ac3b0f-97d7-495f-a5f3-dfbc536b49ea"
            }
          }
        ]
      }
    }
  },
  "events": []
}